01 - Minimising Mutual Information
…
Step 4: Find the best stimulus set

We can now sort the results by mutual information (ascendingly) to order them by how well-matched the conditions are.

res_sorted <- arrange(res, mi)

res_sorted

## # A tibble: 50,000 x 2
##          seed    mi
##         <int> <dbl>
##  1  593758806 0.440
##  2  850299925 0.441
##  3  495235614 0.448
##  4  443280554 0.449
##  5 1581154247 0.451
##  6  692482932 0.452
##  7  216592018 0.458
##  8 1567192811 0.463
##  9 1868145521 0.465
## 10 1301707060 0.466
## # ... with 49,990 more rows
…
