04 - Matching >2 Conditions
…
Step 7: Find the best stimulus set

We can now sort the results by mean overlapping index (descendingly) to order them by how well-matched the conditions are. Remember, that since we took the minimum of all possible paired comparisons, we are actually taking the average of the worst-case scenarios.

res_sorted <- arrange(res_summ, desc(mean_ov))

res_sorted

## # A tibble: 1,000 x 2
##          seed mean_ov
##         <int>   <dbl>
##  1 2022809197   0.852
##  2 1113083422   0.849
##  3  466034554   0.848
##  4  536450273   0.847
##  5 1784975459   0.845
##  6 1495863313   0.844
##  7 1454194072   0.843
##  8  865344454   0.842
##  9 1316088058   0.842
## 10   84004774   0.842
## # ... with 990 more rows
…
