01 - Maximising Distributional Overlap
…
Step 5: Find the best stimulus set

We can now sort the results by overlapping index (descendingly) to order them by how well-matched the conditions are.

res_sorted <- arrange(res, desc(ov))

res_sorted

## # A tibble: 1,000 x 2
##          seed    ov
##         <int> <dbl>
##  1 1213885628 0.943
##  2 1546785205 0.937
##  3  343724044 0.936
##  4 1958520577 0.934
##  5  677473488 0.933
##  6 2089614910 0.933
##  7 1391940700 0.929
##  8 1577237330 0.927
##  9  350431341 0.926
## 10  313692455 0.926
## # ... with 990 more rows
…
