06 - Matching in Euclidean Distance
…
As before, this gives us a list of matched triplets of young, middle-aged, and old faces. Each row has a young face A1, a middle-aged face A2, and an old face A3.

stim

## # A tibble: 100 x 5
##    item_nr A1        A2        A3        match_null
##      <int> <chr>     <chr>     <chr>     <chr>     
##  1       1 face_4884 face_1629 face_3560 <NA>      
##  2       2 face_3891 face_564  face_1248 <NA>      
##  3       3 face_2107 face_3512 face_1245 <NA>      
##  4       4 face_3143 face_2048 face_3766 <NA>      
##  5       5 face_1605 face_1219 face_98   <NA>      
##  6       6 face_2161 face_2274 face_4318 <NA>      
##  7       7 face_3570 face_3825 face_2957 <NA>      
##  8       8 face_311  face_2762 face_3089 <NA>      
##  9       9 face_3282 face_1794 face_3257 <NA>      
## 10      10 face_2687 face_4909 face_1919 <NA>      
## # ... with 90 more rows

Step 2: Check Stimuli

We can check the values for each item with long_format():

long_format(stim)

## # A tibble: 306 x 7
##    item_nr condition match_null stim_id   gender   age control_map_1    
##      <int> <chr>     <chr>      <chr>     <chr>  <dbl> <chr>            
##  1       1 A1        <NA>       face_4884 m         19 0                
##  2       1 A2        <NA>       face_1629 m         36 0.460040186428965
##  3       1 A3        <NA>       face_3560 m         54 0.428218541284003
##  4       2 A1        <NA>       face_3891 f         26 0.493779127931998
##  5       2 A2        <NA>       face_564  f         41 0.494514082260001
##  6       2 A3        <NA>       face_1248 f         54 0                
##  7       3 A1        <NA>       face_2107 m         19 0.421238970862593
##  8       3 A2        <NA>       face_3512 m         43 0                
##  9       3 A3        <NA>       face_1245 m         55 0.356592103417749
## 10       4 A1        <NA>       face_3143 f         21 0                
## # ... with 296 more rows
…
