01 - Item-Wise Matching
…
This gives us a list of matched pairs of young and old faces. Each row has a young face A1, and old face A2, and match_null (usually only relevant for designs with >2 conditions - see 04 - Setting the Match Null):

stim

## # A tibble: 100 x 4
##    item_nr A1        A2        match_null
##      <int> <chr>     <chr>     <chr>     
##  1       1 face_4884 face_4197 A1        
##  2       2 face_4022 face_1960 A1        
##  3       3 face_1307 face_3654 A2        
##  4       4 face_2516 face_163  A2        
##  5       5 face_117  face_3006 A1        
##  6       6 face_2901 face_913  A1        
##  7       7 face_175  face_2151 A2        
##  8       8 face_3958 face_2218 A1        
##  9       9 face_2983 face_3459 A1        
## 10      10 face_2139 face_3470 A1        
## # ... with 90 more rows
…
