03 - More than 2 Conditions
…
Young female faces (A1_B1)

Young male faces (A1_B2)

Middle-aged female faces (A2_B1)

Middle-aged male faces (A2_B2)

Old female faces (A3_B1)

Old male faces (A3_B2)

stim

## # A tibble: 100 x 8
##    item_nr A1_B1     A1_B2     A2_B1     A2_B2     A3_B1     A3_B2     match_null
##      <int> <chr>     <chr>     <chr>     <chr>     <chr>     <chr>     <chr>     
##  1       1 face_4720 face_2385 face_2936 face_3338 face_3547 face_1367 <NA>      
##  2       2 face_4047 face_2087 face_1650 face_489  face_3257 face_1226 <NA>      
##  3       3 face_178  face_1384 face_530  face_4097 face_2029 face_1752 <NA>      
##  4       4 face_3949 face_2209 face_3909 face_602  face_2745 face_3200 <NA>      
##  5       5 face_1783 face_4638 face_1579 face_1465 face_2163 face_1806 <NA>      
##  6       6 face_3295 face_4898 face_4752 face_3637 face_4156 face_1613 <NA>      
##  7       7 face_157  face_917  face_1688 face_3086 face_4868 face_1747 <NA>      
##  8       8 face_976  face_634  face_2458 face_1251 face_4558 face_1623 <NA>      
##  9       9 face_1466 face_4666 face_4294 face_3402 face_4892 face_1812 <NA>      
## 10      10 face_4514 face_890  face_297  face_3105 face_2888 face_79   <NA>      
## # ... with 90 more rows

Step 2: Check Stimuli

We can check the values for each item with long_format():

long_format(stim)

## # A tibble: 600 x 8
##    item_nr condition match_null stim_id   gender   age face_width face_length
##      <int> <chr>     <chr>      <chr>     <fct>  <dbl>      <dbl>       <dbl>
##  1       1 A1_B1     <NA>       face_4720 f         23       62.1        114.
##  2       1 A1_B2     <NA>       face_2385 m         27       63.0        114.
##  3       1 A2_B1     <NA>       face_2936 f         43       63.0        114.
##  4       1 A2_B2     <NA>       face_3338 m         41       62.4        113.
##  5       1 A3_B1     <NA>       face_3547 f         54       62.1        114.
##  6       1 A3_B2     <NA>       face_1367 m         56       62.2        113.
##  7       2 A1_B1     <NA>       face_4047 f         26       62.0        110.
##  8       2 A1_B2     <NA>       face_2087 m         24       62.4        110.
##  9       2 A2_B1     <NA>       face_1650 f         40       62.0        110.
## 10       2 A2_B2     <NA>       face_489  m         44       61.7        110.
## # ... with 590 more rows
…
