04 - Setting the Match Null
…
This gives us the following result - notice the match_null column at the end. Each row has a different match null, one of the three conditions, which dictates which condition the other conditions are matched to. For example, for the first matched row, the conditions A2 and A3 are matched to condition A1.

stim1

## # A tibble: 100 x 5
##    item_nr A1        A2        A3        match_null
##      <int> <chr>     <chr>     <chr>     <chr>     
##  1       1 face_4884 face_1865 face_2334 A1        
##  2       2 face_3851 face_740  face_3854 A3        
##  3       3 face_3301 face_160  face_4826 A2        
##  4       4 face_2181 face_1713 face_2558 A1        
##  5       5 face_3282 face_3330 face_1218 A3        
##  6       6 face_341  face_3098 face_4026 A2        
##  7       7 face_121  face_3052 face_3084 A3        
##  8       8 face_1817 face_720  face_3491 A3        
##  9       9 face_1243 face_4788 face_1334 A1        
## 10      10 face_4854 face_3816 face_2268 A3        
## # ... with 90 more rows
…
This time, the match_null column will all equal NA, because every condition is matched to every other condition.

stim2

## # A tibble: 100 x 5
##    item_nr A1        A2        A3        match_null
##      <int> <chr>     <chr>     <chr>     <chr>     
##  1       1 face_2897 face_4923 face_779  <NA>      
##  2       2 face_337  face_4709 face_2957 <NA>      
##  3       3 face_3946 face_3317 face_637  <NA>      
##  4       4 face_1081 face_1984 face_3014 <NA>      
##  5       5 face_1044 face_4701 face_3354 <NA>      
##  6       6 face_3059 face_2313 face_4200 <NA>      
##  7       7 face_2596 face_4752 face_4156 <NA>      
##  8       8 face_3172 face_1579 face_3653 <NA>      
##  9       9 face_4240 face_3644 face_3247 <NA>      
## 10      10 face_1312 face_1629 face_765  <NA>      
## # ... with 90 more rows
…
Now, the match_null column will all equal "A2", because for all sets, conditions A1 and A3 are matched relative to A2.

stim3

## # A tibble: 100 x 5
##    item_nr A1        A2        A3        match_null
##      <int> <chr>     <chr>     <chr>     <chr>     
##  1       1 face_2991 face_2698 face_3974 A2        
##  2       2 face_3779 face_90   face_2811 A2        
##  3       3 face_606  face_1737 face_3467 A2        
##  4       4 face_1460 face_2587 face_2939 A2        
##  5       5 face_2365 face_4296 face_329  A2        
##  6       6 face_1466 face_1101 face_637  A2        
##  7       7 face_4377 face_94   face_4468 A2        
##  8       8 face_2385 face_1727 face_4100 A2        
##  9       9 face_2575 face_3606 face_4879 A2        
## 10      10 face_3024 face_796  face_3247 A2        
## # ... with 90 more rows
