07 - Weighting Euclidean Distance
…
As before, this gives us a list of matched triplets of young, middle-aged, and old faces. Each row has a young face A1, a middle-aged face A2, and an old face A3.

stim

## # A tibble: 100 x 5
##    item_nr A1        A2        A3        match_null
##      <int> <chr>     <chr>     <chr>     <chr>     
##  1       1 face_1974 face_1323 face_3571 <NA>      
##  2       2 face_4690 face_1465 face_163  <NA>      
##  3       3 face_4758 face_4083 face_4762 <NA>      
##  4       4 face_2965 face_2527 face_4021 <NA>      
##  5       5 face_4439 face_345  face_3077 <NA>      
##  6       6 face_1207 face_3714 face_2455 <NA>      
##  7       7 face_1700 face_493  face_1198 <NA>      
##  8       8 face_3803 face_1182 face_1709 <NA>      
##  9       9 face_3464 face_537  face_4372 <NA>      
## 10      10 face_2064 face_4458 face_1381 <NA>      
## # ... with 90 more rows

Step 2: Check Stimuli

We can check the values for each item with long_format():

long_format(stim)

## # A tibble: 307 x 7
##    item_nr condition match_null stim_id   gender   age control_map_1    
##      <int> <chr>     <chr>      <chr>     <chr>  <dbl> <chr>            
##  1       1 A1        <NA>       face_1974 m         24 0                
##  2       1 A2        <NA>       face_1323 m         43 0.273218812990132
##  3       1 A3        <NA>       face_3571 m         57 0.490728856072509
##  4       2 A1        <NA>       face_4690 m         18 0.196491173340288
##  5       2 A2        <NA>       face_1465 m         40 0.378832631634821
##  6       2 A3        <NA>       face_163  m         50 0                
##  7       3 A1        <NA>       face_4758 m         20 0.396889229473117
##  8       3 A2        <NA>       face_4083 m         40 0                
##  9       3 A3        <NA>       face_4762 m         60 0.479637465327233
## 10       4 A1        <NA>       face_2965 f         24 0                
## # ... with 297 more rows
…
