08 - Item-Wise Matching from Scratch
…
Step 4: Check Stimuli

Now we have a list of all the matched pairs, we can put this in a dataframe like so .

match_df <- map_df(1:length(matches), function(i) {
  tibble(
    pair_nr = i,
    young = matches[[i]]["young"],
    old = matches[[i]]["old"]
  )
})

match_df

## # A tibble: 100 x 3
##    pair_nr young     old      
##      <int> <chr>     <chr>    
##  1       1 face_2398 face_1490
##  2       2 face_169  face_4147
##  3       3 face_1637 face_911 
##  4       4 face_1656 face_3414
##  5       5 face_2181 face_3664
##  6       6 face_4674 face_295 
##  7       7 face_553  face_1295
##  8       8 face_1548 face_601 
##  9       9 face_1982 face_2997
## 10      10 face_1702 face_4455
## # ... with 90 more rows
…
stim_pool_old <- stim_pool %>%
  rename(face_width_old = face_width) %>%
  select(stim_id, face_width_old)

match_df <- match_df %>%
  left_join(stim_pool_young, by=c("young" = "stim_id"))  %>%
  left_join(stim_pool_old, by=c("old" = "stim_id")) %>%
  mutate(face_width_diff = face_width_young - face_width_old)

match_df

## # A tibble: 100 x 6
##    pair_nr young     old       face_width_young face_width_old face_width_diff
##      <int> <chr>     <chr>                <dbl>          <dbl>           <dbl>
##  1       1 face_2398 face_1490             65.6           65.5           0.140
##  2       2 face_169  face_4147             59.8           60.0          -0.180
##  3       3 face_1637 face_911              63.2           63.6          -0.400
##  4       4 face_1656 face_3414             68.2           68.4          -0.190
##  5       5 face_2181 face_3664             61.6           61.8          -0.200
##  6       6 face_4674 face_295              67.4           67             0.450
##  7       7 face_553  face_1295             60.0           59.8           0.200
##  8       8 face_1548 face_601              66.5           66.9          -0.410
##  9       9 face_1982 face_2997             61.0           60.8           0.150
## 10      10 face_1702 face_4455             60.4           60.7          -0.310
## # ... with 90 more rows
…
