02 - Multiple Controls
…
This gives us a list of matched pairs of young and old faces. Each row has a young face A1, and old face A2, and match_null (usually only relevant for designs with >2 conditions - see 04 - Setting the Match Null):

stim

## # A tibble: 100 x 4
##    item_nr A1        A2        match_null
##      <int> <chr>     <chr>     <chr>     
##  1       1 face_4884 face_3822 A1        
##  2       2 face_4022 face_3870 A1        
##  3       3 face_3985 face_3653 A2        
##  4       4 face_3282 face_3269 A2        
##  5       5 face_3143 face_1601 A1        
##  6       6 face_2896 face_703  A1        
##  7       7 face_2328 face_2149 A2        
##  8       8 face_1106 face_1798 A1        
##  9       9 face_3958 face_4435 A1        
## 10      10 face_2969 face_3571 A1        
## # ... with 90 more rows

Step 2: Check Stimuli

We can check the values for each item with long_format():

long_format(stim)

## # A tibble: 200 x 9
##    item_nr condition match_null stim_id   gender   age task_rt face_width face_length
##      <int> <chr>     <chr>      <chr>     <chr>  <dbl>   <dbl>      <dbl>       <dbl>
##  1       1 A1        A1         face_4884 m         19    801.       63.6        115.
##  2       1 A2        A1         face_3822 m         54    807.       63.6        116.
##  3       2 A1        A1         face_4022 m         24    317.       60.8        114.
##  4       2 A2        A1         face_3870 m         56    328.       60.7        116.
##  5       3 A1        A2         face_3985 f         27    487.       63.3        115.
##  6       3 A2        A2         face_3653 f         52    465.       62.8        116.
##  7       4 A1        A2         face_3282 f         21    639.       61.3        110.
##  8       4 A2        A2         face_3269 f         57    637.       61          111.
##  9       5 A1        A1         face_3143 f         21   1014.       63.3        111.
## 10       5 A2        A1         face_1601 f         50   1012.       63.4        111.
## # ... with 190 more rows
…
